<svg width="64" height="64" viewBox="0 0 64 64" version="1.1" xmlns="http://www.w3.org/2000/svg" xmlns:xlink="http://www.w3.org/1999/xlink">
<title>phishing-check</title>
<desc>Created using Figma</desc>
<g id="Canvas" transform="translate(155 -738)">
<g id="phishing-check">
<g id="Vector">
<use xlink:href="#path0_fill" transform="translate(-155 738)" fill="#73F0CF"/>
</g>
</g>
</g>
<defs>
<path id="path0_fill" d="M 35.7173 57.896C 31.6427 58.944 27.5573 59.0373 24.016 57.9307L 41.9067 20.9013C 44.704 15.1733 49.7653 16.9707 52.4373 11.512C 52.9893 10.384 53.2507 9.18667 53.2507 8.008C 53.2507 3.52533 49.608 0 45.264 0C 40.64 0 37.3333 3.85333 37.3333 8.14667C 37.3333 11.544 39.2427 14.2053 37.1147 18.5547L 19.224 55.592C 14.5253 52.3147 11.224 46.0027 10.0267 39.3147L 14.9547 38.9253L 6.59733 26.8133L 0 39.944L 4.656 39.528C 6.26133 49.4507 11.3787 57.6827 19.2747 61.5493C 22.6453 63.2 26.2613 64 29.984 64C 32.7333 64 35.5467 63.5227 38.36 62.672C 37.24 61.2427 36.3467 59.6347 35.7173 57.896ZM 45.3333 5.33067C 46.792 5.33067 48 6.51467 48 8C 48 9.44 46.824 10.664 45.3227 10.664C 43.8533 10.664 42.6667 9.46667 42.6667 7.992C 42.6667 6.53333 43.848 5.33067 45.3333 5.33067ZM 52 40C 45.3707 40 40 45.3733 40 52C 40 58.6267 45.3707 64 52 64C 58.624 64 64 58.6267 64 52C 64 45.3733 58.624 40 52 40ZM 50.7493 57.2907L 46.248 52.9253L 48.1013 51.0667L 50.7467 53.5733L 56.3867 47.7893L 58.2453 49.6453L 50.7493 57.2907Z"/>
</defs>
</svg>
