<svg width="59" height="59" viewBox="0 0 59 59" version="1.1" xmlns="http://www.w3.org/2000/svg" xmlns:xlink="http://www.w3.org/1999/xlink">
<title>settings</title>
<desc>Created using Figma</desc>
<g id="Canvas" transform="translate(-468 239)">
<g id="settings">
<g id="Vector">
<use xlink:href="#path0_stroke" transform="translate(490.273 -216.727)" fill="#8D8B8E"/>
</g>
<g id="Vector">
<use xlink:href="#path1_stroke" transform="translate(471 -236)" fill="#8D8B8E"/>
</g>
</g>
</g>
<defs>
<path id="path0_stroke" d="M 11.9545 7.22727C 11.9545 9.83807 9.83807 11.9545 7.22727 11.9545L 7.22727 16.9545C 12.5995 16.9545 16.9545 12.5995 16.9545 7.22727L 11.9545 7.22727ZM 7.22727 11.9545C 4.61647 11.9545 2.5 9.83807 2.5 7.22727L -2.5 7.22727C -2.5 12.5995 1.85505 16.9545 7.22727 16.9545L 7.22727 11.9545ZM 2.5 7.22727C 2.5 4.61647 4.61647 2.5 7.22727 2.5L 7.22727 -2.5C 1.85505 -2.5 -2.5 1.85505 -2.5 7.22727L 2.5 7.22727ZM 7.22727 2.5C 9.83807 2.5 11.9545 4.61647 11.9545 7.22727L 16.9545 7.22727C 16.9545 1.85505 12.5995 -2.5 7.22727 -2.5L 7.22727 2.5Z"/>
<path id="path1_stroke" d="M 45.1223 38.1118L 43.3351 39.86C 43.3416 39.8666 43.348 39.8731 43.3545 39.8796L 45.1223 38.1118ZM 45.2668 38.2564L 43.4991 40.0242L 43.5 40.0251L 45.2668 38.2564ZM 45.2668 45.0741L 43.5 43.3053L 43.4981 43.3073L 45.2668 45.0741ZM 38.4491 45.0741L 40.2178 43.3073L 40.2169 43.3063L 38.4491 45.0741ZM 38.3045 44.9295L 40.0723 43.1618C 40.0658 43.1553 40.0593 43.1488 40.0527 43.1424L 38.3045 44.9295ZM 33.92 44.1345L 34.9048 46.4324C 34.913 46.4289 34.9212 46.4253 34.9294 46.4217L 33.92 44.1345ZM 31.5109 47.7723L 29.0109 47.7623L 29.0109 47.7723L 31.5109 47.7723ZM 21.8745 47.965L 24.3745 47.965C 24.3745 47.9455 24.3743 47.926 24.3739 47.9065L 21.8745 47.965ZM 19.2727 44.3273L 18.2633 46.6144C 18.3115 46.6357 18.3603 46.6554 18.4098 46.6736L 19.2727 44.3273ZM 14.8882 45.1223L 13.14 43.3351C 13.1334 43.3416 13.1269 43.348 13.1204 43.3545L 14.8882 45.1223ZM 14.7436 45.2668L 12.9758 43.4991L 12.9749 43.5L 14.7436 45.2668ZM 7.92591 45.2668L 9.69466 43.5L 9.69269 43.4981L 7.92591 45.2668ZM 6.5128 41.858L 9.0128 41.858L 6.5128 41.858ZM 7.92591 38.4491L 9.69269 40.2178L 9.69367 40.2169L 7.92591 38.4491ZM 8.07045 38.3045L 9.83821 40.0723C 9.84472 40.0658 9.85118 40.0593 9.85761 40.0527L 8.07045 38.3045ZM 8.86545 33.92L 6.5676 34.9048C 6.57113 34.913 6.57469 34.9212 6.5783 34.9294L 8.86545 33.92ZM 5.22773 31.5109L 5.2377 29.0109L 5.22773 29.0109L 5.22773 31.5109ZM 0 26.6927L -2.5 26.6927L 0 26.6927ZM 4.81818 21.8745L 4.81818 24.3745L 4.81818 21.8745ZM 5.035 21.8745L 5.035 24.3745C 5.05449 24.3745 5.07398 24.3743 5.09346 24.3739L 5.035 21.8745ZM 8.67273 19.2727L 6.38557 18.2633C 6.36431 18.3115 6.34457 18.3603 6.32639 18.4098L 8.67273 19.2727ZM 7.87773 14.8882L 9.66488 13.14C 9.65846 13.1334 9.65199 13.1269 9.64549 13.1204L 7.87773 14.8882ZM 7.73318 14.7436L 9.50095 12.9759L 9.49997 12.9749L 7.73318 14.7436ZM 7.73318 7.92591L 9.49997 9.69466L 9.50193 9.69269L 7.73318 7.92591ZM 14.5509 7.92591L 12.7822 9.69269L 12.7831 9.69368L 14.5509 7.92591ZM 14.6955 8.07045L 12.9277 9.83822C 12.9342 9.84472 12.9407 9.85118 12.9473 9.85761L 14.6955 8.07045ZM 19.08 8.86545L 19.08 6.36545C 18.7324 6.36545 18.3886 6.43795 18.0706 6.5783L 19.08 8.86545ZM 19.2727 8.86545L 19.2727 11.3655C 19.6113 11.3655 19.9464 11.2967 20.2576 11.1633L 19.2727 8.86545ZM 21.6818 5.22773L 24.1818 5.2377L 24.1818 5.22773L 21.6818 5.22773ZM 26.5 0L 26.5 -2.5L 26.5 0ZM 31.3182 5.035L 28.8182 5.035L 28.8182 5.04497L 31.3182 5.035ZM 33.7273 8.67273L 34.7367 6.38557C 34.7285 6.38196 34.7203 6.3784 34.7121 6.37488L 33.7273 8.67273ZM 38.1118 7.87773L 39.86 9.66488C 39.8666 9.65845 39.8731 9.65199 39.8796 9.64549L 38.1118 7.87773ZM 38.2564 7.73318L 40.0241 9.50094L 40.0251 9.49997L 38.2564 7.73318ZM 41.6652 6.32007L 41.6652 8.82007L 41.6652 6.32007ZM 45.0741 7.73318L 43.3053 9.49997L 43.3073 9.50193L 45.0741 7.73318ZM 45.0741 14.5509L 43.3073 12.7822L 43.3063 12.7831L 45.0741 14.5509ZM 44.9295 14.6955L 43.1618 12.9277C 43.1553 12.9342 43.1488 12.9407 43.1424 12.9473L 44.9295 14.6955ZM 44.1345 19.08L 46.6345 19.08C 46.6345 18.7324 46.5621 18.3886 46.4217 18.0706L 44.1345 19.08ZM 44.1345 19.2727L 41.6345 19.2727C 41.6345 19.6113 41.7033 19.9464 41.8367 20.2576L 44.1345 19.2727ZM 47.7723 21.6818L 47.7623 24.1818L 47.7723 24.1818L 47.7723 21.6818ZM 47.965 31.3182L 47.965 28.8182L 47.955 28.8182L 47.965 31.3182ZM 42.0401 32.7179C 41.5177 33.9015 41.3619 35.2144 41.5927 36.4874L 46.5125 35.5954C 46.4599 35.3054 46.4954 35.0063 46.6144 34.7367L 42.0401 32.7179ZM 41.5927 36.4874C 41.8236 37.7604 42.4304 38.9351 43.3351 39.86L 46.9094 36.3637C 46.7033 36.153 46.5651 35.8854 46.5125 35.5954L 41.5927 36.4874ZM 43.3545 39.8796L 43.4991 40.0242L 47.0346 36.4886L 46.89 36.344L 43.3545 39.8796ZM 43.5 40.0251C 43.7156 40.2404 43.8866 40.4961 44.0032 40.7775L 48.6221 38.8628C 48.2538 37.9744 47.714 37.1673 47.0336 36.4876L 43.5 40.0251ZM 44.0032 40.7775C 44.1199 41.0589 44.1799 41.3606 44.1799 41.6652L 49.1799 41.6652C 49.1799 40.7035 48.9904 39.7512 48.6221 38.8628L 44.0032 40.7775ZM 44.1799 41.6652C 44.1799 41.9699 44.1199 42.2715 44.0032 42.553L 48.6221 44.4677C 48.9904 43.5792 49.1799 42.627 49.1799 41.6652L 44.1799 41.6652ZM 44.0032 42.553C 43.8866 42.8344 43.7156 43.09 43.5 43.3053L 47.0336 46.8428C 47.714 46.1632 48.2538 45.3561 48.6221 44.4677L 44.0032 42.553ZM 43.4981 43.3073C 43.2828 43.5228 43.0271 43.6938 42.7457 43.8105L 44.6604 48.4294C 45.5488 48.0611 46.3559 47.5213 47.0356 46.8409L 43.4981 43.3073ZM 42.7457 43.8105C 42.4643 43.9272 42.1626 43.9872 41.858 43.9872L 41.858 48.9872C 42.8197 48.9872 43.772 48.7976 44.6604 48.4294L 42.7457 43.8105ZM 41.858 43.9872C 41.5533 43.9872 41.2517 43.9272 40.9702 43.8105L 39.0555 48.4294C 39.9439 48.7976 40.8962 48.9872 41.858 48.9872L 41.858 43.9872ZM 40.9702 43.8105C 40.6888 43.6938 40.4331 43.5228 40.2178 43.3073L 36.6803 46.8409C 37.36 47.5213 38.1671 48.0611 39.0555 48.4294L 40.9702 43.8105ZM 40.2169 43.3063L 40.0723 43.1618L 36.5368 46.6973L 36.6813 46.8419L 40.2169 43.3063ZM 40.0527 43.1424C 39.1278 42.2377 37.9532 41.6308 36.6802 41.4L 35.7881 46.3198C 36.0781 46.3724 36.3457 46.5106 36.5564 46.7167L 40.0527 43.1424ZM 36.6802 41.4C 35.4072 41.1692 34.0942 41.325 32.9106 41.8474L 34.9294 46.4217C 35.199 46.3027 35.4981 46.2672 35.7881 46.3198L 36.6802 41.4ZM 32.9352 41.8367C 31.7745 42.3341 30.7846 43.1601 30.0874 44.213L 34.2561 46.9737C 34.4149 46.7339 34.6404 46.5457 34.9048 46.4324L 32.9352 41.8367ZM 30.0874 44.213C 29.3901 45.2658 29.016 46.4995 29.0109 47.7623L 34.0109 47.7822C 34.012 47.4946 34.0973 47.2135 34.2561 46.9737L 30.0874 44.213ZM 29.0109 47.7723L 29.0109 48.1818L 34.0109 48.1818L 34.0109 47.7723L 29.0109 47.7723ZM 29.0109 48.1818C 29.0109 48.7966 28.7667 49.3863 28.3319 49.821L 31.8675 53.3566C 33.2399 51.9841 34.0109 50.1227 34.0109 48.1818L 29.0109 48.1818ZM 28.3319 49.821C 27.8972 50.2558 27.3075 50.5 26.6927 50.5L 26.6927 55.5C 28.6336 55.5 30.495 54.729 31.8675 53.3566L 28.3319 49.821ZM 26.6927 50.5C 26.0779 50.5 25.4883 50.2558 25.0535 49.821L 21.518 53.3566C 22.8904 54.729 24.7518 55.5 26.6927 55.5L 26.6927 50.5ZM 25.0535 49.821C 24.6188 49.3863 24.3745 48.7966 24.3745 48.1818L 19.3745 48.1818C 19.3745 50.1227 20.1456 51.9841 21.518 53.3566L 25.0535 49.821ZM 24.3745 48.1818L 24.3745 47.965L 19.3745 47.965L 19.3745 48.1818L 24.3745 48.1818ZM 24.3739 47.9065C 24.3435 46.6076 23.923 45.3479 23.1672 44.2911L 19.1004 47.1999C 19.2725 47.4406 19.3683 47.7276 19.3752 48.0235L 24.3739 47.9065ZM 23.1672 44.2911C 22.4114 43.2344 21.3551 42.4294 20.1357 41.9809L 18.4098 46.6736C 18.6876 46.7758 18.9282 46.9591 19.1004 47.1999L 23.1672 44.2911ZM 20.2821 42.0401C 19.0985 41.5177 17.7856 41.3619 16.5126 41.5927L 17.4046 46.5125C 17.6946 46.4599 17.9937 46.4954 18.2633 46.6144L 20.2821 42.0401ZM 16.5126 41.5927C 15.2396 41.8236 14.0649 42.4304 13.14 43.3351L 16.6363 46.9094C 16.847 46.7033 17.1146 46.5651 17.4046 46.5125L 16.5126 41.5927ZM 13.1204 43.3545L 12.9758 43.4991L 16.5114 47.0346L 16.656 46.89L 13.1204 43.3545ZM 12.9749 43.5C 12.7596 43.7156 12.5039 43.8866 12.2225 44.0032L 14.1372 48.6221C 15.0256 48.2538 15.8327 47.714 16.5124 47.0336L 12.9749 43.5ZM 12.2225 44.0032C 11.9411 44.1199 11.6394 44.1799 11.3348 44.1799L 11.3348 49.1799C 12.2965 49.1799 13.2488 48.9904 14.1372 48.6221L 12.2225 44.0032ZM 11.3348 44.1799C 11.0301 44.1799 10.7285 44.1199 10.447 44.0032L 8.53235 48.6221C 9.42076 48.9904 10.373 49.1799 11.3348 49.1799L 11.3348 44.1799ZM 10.447 44.0032C 10.1656 43.8866 9.90995 43.7156 9.69466 43.5L 6.15716 47.0336C 6.83683 47.714 7.64394 48.2538 8.53235 48.6221L 10.447 44.0032ZM 9.69269 43.4981C 9.47716 43.2828 9.30617 43.0271 9.18951 42.7457L 4.57064 44.6604C 4.93892 45.5488 5.4787 46.3559 6.15913 47.0356L 9.69269 43.4981ZM 9.18951 42.7457C 9.07285 42.4643 9.0128 42.1626 9.0128 41.858L 4.0128 41.858C 4.0128 42.8197 4.20236 43.772 4.57064 44.6604L 9.18951 42.7457ZM 9.0128 41.858C 9.0128 41.5533 9.07285 41.2517 9.18951 40.9702L 4.57064 39.0555C 4.20236 39.9439 4.0128 40.8962 4.0128 41.858L 9.0128 41.858ZM 9.18951 40.9702C 9.30617 40.6888 9.47716 40.4331 9.69269 40.2178L 6.15913 36.6803C 5.4787 37.36 4.93892 38.1671 4.57064 39.0555L 9.18951 40.9702ZM 9.69367 40.2169L 9.83821 40.0723L 6.30269 36.5368L 6.15815 36.6813L 9.69367 40.2169ZM 9.85761 40.0527C 10.7623 39.1278 11.3692 37.9532 11.6 36.6802L 6.68021 35.7881C 6.62763 36.0781 6.48938 36.3457 6.2833 36.5564L 9.85761 40.0527ZM 11.6 36.6802C 11.8308 35.4072 11.675 34.0942 11.1526 32.9106L 6.5783 34.9294C 6.69729 35.199 6.73279 35.4981 6.68021 35.7881L 11.6 36.6802ZM 11.1633 32.9352C 10.6659 31.7745 9.83987 30.7846 8.78704 30.0874L 6.02629 34.2561C 6.26613 34.4149 6.45429 34.6404 6.5676 34.9048L 11.1633 32.9352ZM 8.78704 30.0874C 7.7342 29.3901 6.50047 29.016 5.2377 29.0109L 5.21776 34.0109C 5.50541 34.012 5.78646 34.0973 6.02629 34.2561L 8.78704 30.0874ZM 5.22773 29.0109L 4.81818 29.0109L 4.81818 34.0109L 5.22773 34.0109L 5.22773 29.0109ZM 4.81818 29.0109C 4.20336 29.0109 3.61372 28.7667 3.17898 28.3319L -0.356554 31.8675C 1.01587 33.2399 2.87728 34.0109 4.81818 34.0109L 4.81818 29.0109ZM 3.17898 28.3319C 2.74424 27.8972 2.5 27.3075 2.5 26.6927L -2.5 26.6927C -2.5 28.6336 -1.72898 30.495 -0.356554 31.8675L 3.17898 28.3319ZM 2.5 26.6927C 2.5 26.0779 2.74424 25.4883 3.17898 25.0535L -0.356554 21.518C -1.72898 22.8904 -2.5 24.7518 -2.5 26.6927L 2.5 26.6927ZM 3.17898 25.0535C 3.61372 24.6188 4.20336 24.3745 4.81818 24.3745L 4.81818 19.3745C 2.87728 19.3745 1.01587 20.1456 -0.356554 21.518L 3.17898 25.0535ZM 4.81818 24.3745L 5.035 24.3745L 5.035 19.3745L 4.81818 19.3745L 4.81818 24.3745ZM 5.09346 24.3739C 6.39236 24.3435 7.65209 23.923 8.70886 23.1672L 5.80012 19.1004C 5.55939 19.2725 5.27243 19.3683 4.97654 19.3752L 5.09346 24.3739ZM 8.70886 23.1672C 9.76564 22.4114 10.5706 21.3551 11.0191 20.1357L 6.32639 18.4098C 6.22422 18.6876 6.04086 18.9282 5.80012 19.1004L 8.70886 23.1672ZM 10.9599 20.2821C 11.4823 19.0985 11.6381 17.7856 11.4073 16.5126L 6.48748 17.4046C 6.54006 17.6946 6.50457 17.9937 6.38557 18.2633L 10.9599 20.2821ZM 11.4073 16.5126C 11.1764 15.2396 10.5696 14.0649 9.66488 13.14L 6.09057 16.6363C 6.29666 16.847 6.4349 17.1146 6.48748 17.4046L 11.4073 16.5126ZM 9.64549 13.1204L 9.50095 12.9759L 5.96542 16.5114L 6.10996 16.6559L 9.64549 13.1204ZM 9.49997 12.9749C 9.28443 12.7596 9.11344 12.5039 8.99678 12.2225L 4.37792 14.1372C 4.7462 15.0256 5.28598 15.8327 5.9664 16.5124L 9.49997 12.9749ZM 8.99678 12.2225C 8.88012 11.9411 8.82007 11.6394 8.82007 11.3348L 3.82007 11.3348C 3.82007 12.2965 4.00963 13.2488 4.37792 14.1372L 8.99678 12.2225ZM 8.82007 11.3348C 8.82007 11.0301 8.88012 10.7285 8.99678 10.447L 4.37792 8.53235C 4.00963 9.42076 3.82007 10.3731 3.82007 11.3348L 8.82007 11.3348ZM 8.99678 10.447C 9.11344 10.1656 9.28443 9.90996 9.49997 9.69466L 5.9664 6.15716C 5.28598 6.83682 4.7462 7.64393 4.37792 8.53235L 8.99678 10.447ZM 9.50193 9.69269C 9.71723 9.47716 9.9729 9.30617 10.2543 9.18951L 8.33962 4.57064C 7.45121 4.93893 6.64409 5.47871 5.96443 6.15913L 9.50193 9.69269ZM 10.2543 9.18951C 10.5357 9.07285 10.8374 9.0128 11.142 9.0128L 11.142 4.0128C 10.1803 4.0128 9.22803 4.20236 8.33962 4.57064L 10.2543 9.18951ZM 11.142 9.0128C 11.4467 9.0128 11.7483 9.07285 12.0298 9.18951L 13.9445 4.57064C 13.0561 4.20236 12.1038 4.0128 11.142 4.0128L 11.142 9.0128ZM 12.0298 9.18951C 12.3112 9.30617 12.5669 9.47716 12.7822 9.69269L 16.3197 6.15913C 15.64 5.47871 14.8329 4.93893 13.9445 4.57064L 12.0298 9.18951ZM 12.7831 9.69368L 12.9277 9.83822L 16.4632 6.30269L 16.3187 6.15814L 12.7831 9.69368ZM 12.9473 9.85761C 13.8722 10.7623 15.0468 11.3692 16.3198 11.6L 17.2119 6.68021C 16.9219 6.62763 16.6543 6.48938 16.4436 6.2833L 12.9473 9.85761ZM 16.3198 11.6C 17.5928 11.8308 18.9058 11.675 20.0894 11.1526L 18.0706 6.5783C 17.801 6.69729 17.5019 6.73279 17.2119 6.68021L 16.3198 11.6ZM 19.08 11.3655L 19.2727 11.3655L 19.2727 6.36545L 19.08 6.36545L 19.08 11.3655ZM 20.2576 11.1633C 21.4182 10.6659 22.4081 9.83987 23.1054 8.78704L 18.9366 6.02629C 18.7778 6.26613 18.5523 6.45429 18.2879 6.5676L 20.2576 11.1633ZM 23.1054 8.78704C 23.8026 7.7342 24.1768 6.50047 24.1818 5.2377L 19.1818 5.21776C 19.1807 5.50541 19.0955 5.78646 18.9366 6.02629L 23.1054 8.78704ZM 24.1818 5.22773L 24.1818 4.81818L 19.1818 4.81818L 19.1818 5.22773L 24.1818 5.22773ZM 24.1818 4.81818C 24.1818 4.20336 24.4261 3.61372 24.8608 3.17898L 21.3253 -0.356554C 19.9528 1.01587 19.1818 2.87728 19.1818 4.81818L 24.1818 4.81818ZM 24.8608 3.17898C 25.2955 2.74424 25.8852 2.5 26.5 2.5L 26.5 -2.5C 24.5591 -2.5 22.6977 -1.72898 21.3253 -0.356554L 24.8608 3.17898ZM 26.5 2.5C 27.1148 2.5 27.7045 2.74424 28.1392 3.17898L 31.6747 -0.356554C 30.3023 -1.72898 28.4409 -2.5 26.5 -2.5L 26.5 2.5ZM 28.1392 3.17898C 28.5739 3.61372 28.8182 4.20336 28.8182 4.81818L 33.8182 4.81818C 33.8182 2.87728 33.0472 1.01587 31.6747 -0.356554L 28.1392 3.17898ZM 28.8182 4.81818L 28.8182 5.035L 33.8182 5.035L 33.8182 4.81818L 28.8182 4.81818ZM 28.8182 5.04497C 28.8232 6.30774 29.1974 7.54148 29.8947 8.59431L 34.0634 5.83357C 33.9045 5.59373 33.8193 5.31269 33.8182 5.02503L 28.8182 5.04497ZM 29.8947 8.59431C 30.5919 9.64715 31.5818 10.4731 32.7424 10.9706L 34.7121 6.37488C 34.4477 6.26156 34.2222 6.0734 34.0634 5.83357L 29.8947 8.59431ZM 32.7179 10.9599C 33.9015 11.4823 35.2144 11.6381 36.4874 11.4073L 35.5954 6.48748C 35.3054 6.54006 35.0063 6.50457 34.7367 6.38557L 32.7179 10.9599ZM 36.4874 11.4073C 37.7604 11.1764 38.9351 10.5696 39.86 9.66488L 36.3637 6.09057C 36.153 6.29666 35.8854 6.4349 35.5954 6.48748L 36.4874 11.4073ZM 39.8796 9.64549L 40.0241 9.50094L 36.4886 5.96542L 36.344 6.10997L 39.8796 9.64549ZM 40.0251 9.49997C 40.2404 9.28443 40.4961 9.11344 40.7775 8.99678L 38.8628 4.37792C 37.9744 4.7462 37.1673 5.28598 36.4876 5.9664L 40.0251 9.49997ZM 40.7775 8.99678C 41.0589 8.88012 41.3606 8.82007 41.6652 8.82007L 41.6652 3.82007C 40.7035 3.82007 39.7512 4.00963 38.8628 4.37792L 40.7775 8.99678ZM 41.6652 8.82007C 41.9699 8.82007 42.2715 8.88012 42.553 8.99678L 44.4677 4.37792C 43.5792 4.00963 42.627 3.82007 41.6652 3.82007L 41.6652 8.82007ZM 42.553 8.99678C 42.8344 9.11344 43.09 9.28443 43.3053 9.49997L 46.8428 5.9664C 46.1632 5.28598 45.3561 4.7462 44.4677 4.37792L 42.553 8.99678ZM 43.3073 9.50193C 43.5228 9.71723 43.6938 9.9729 43.8105 10.2543L 48.4294 8.33962C 48.0611 7.4512 47.5213 6.64409 46.8409 5.96443L 43.3073 9.50193ZM 43.8105 10.2543C 43.9272 10.5357 43.9872 10.8374 43.9872 11.142L 48.9872 11.142C 48.9872 10.1803 48.7976 9.22803 48.4294 8.33962L 43.8105 10.2543ZM 43.9872 11.142C 43.9872 11.4467 43.9272 11.7483 43.8105 12.0298L 48.4294 13.9445C 48.7976 13.0561 48.9872 12.1038 48.9872 11.142L 43.9872 11.142ZM 43.8105 12.0298C 43.6938 12.3112 43.5228 12.5669 43.3073 12.7822L 46.8409 16.3197C 47.5213 15.64 48.0611 14.8329 48.4294 13.9445L 43.8105 12.0298ZM 43.3063 12.7831L 43.1618 12.9277L 46.6973 16.4632L 46.8419 16.3187L 43.3063 12.7831ZM 43.1424 12.9473C 42.2377 13.8722 41.6308 15.0468 41.4 16.3198L 46.3198 17.2119C 46.3724 16.9219 46.5106 16.6543 46.7167 16.4436L 43.1424 12.9473ZM 41.4 16.3198C 41.1692 17.5928 41.325 18.9058 41.8474 20.0894L 46.4217 18.0706C 46.3027 17.801 46.2672 17.5019 46.3198 17.2119L 41.4 16.3198ZM 41.6345 19.08L 41.6345 19.2727L 46.6345 19.2727L 46.6345 19.08L 41.6345 19.08ZM 41.8367 20.2576C 42.3341 21.4182 43.1601 22.4081 44.213 23.1054L 46.9737 18.9366C 46.7339 18.7778 46.5457 18.5523 46.4324 18.2879L 41.8367 20.2576ZM 44.213 23.1054C 45.2658 23.8026 46.4995 24.1768 47.7623 24.1818L 47.7822 19.1818C 47.4946 19.1807 47.2135 19.0955 46.9737 18.9366L 44.213 23.1054ZM 47.7723 24.1818L 48.1818 24.1818L 48.1818 19.1818L 47.7723 19.1818L 47.7723 24.1818ZM 48.1818 24.1818C 48.7966 24.1818 49.3863 24.4261 49.821 24.8608L 53.3566 21.3253C 51.9841 19.9528 50.1227 19.1818 48.1818 19.1818L 48.1818 24.1818ZM 49.821 24.8608C 50.2558 25.2955 50.5 25.8852 50.5 26.5L 55.5 26.5C 55.5 24.5591 54.729 22.6977 53.3566 21.3253L 49.821 24.8608ZM 50.5 26.5C 50.5 27.1148 50.2558 27.7045 49.821 28.1392L 53.3566 31.6747C 54.729 30.3023 55.5 28.4409 55.5 26.5L 50.5 26.5ZM 49.821 28.1392C 49.3863 28.5739 48.7966 28.8182 48.1818 28.8182L 48.1818 33.8182C 50.1227 33.8182 51.9841 33.0472 53.3566 31.6747L 49.821 28.1392ZM 48.1818 28.8182L 47.965 28.8182L 47.965 33.8182L 48.1818 33.8182L 48.1818 28.8182ZM 47.955 28.8182C 46.6923 28.8232 45.4585 29.1974 44.4057 29.8947L 47.1664 34.0634C 47.4063 33.9045 47.6873 33.8193 47.975 33.8182L 47.955 28.8182ZM 44.4057 29.8947C 43.3529 30.5919 42.5269 31.5818 42.0294 32.7424L 46.6251 34.7121C 46.7384 34.4477 46.9266 34.2222 47.1664 34.0634L 44.4057 29.8947Z"/>
</defs>
</svg>
